%YAML 1.1
%TAG !u! tag:unity3d.com,2011:
--- !u!1001 &5330931710364820653
PrefabInstance:
  m_ObjectHideFlags: 0
  serializedVersion: 2
  m_Modification:
    serializedVersion: 3
    m_TransformParent: {fileID: 4858733207560052225}
    m_Modifications:
    - target: {fileID: 3160066856974181764, guid: 2746583097d4c424ca32fe25bd3401c3,
        type: 3}
      propertyPath: m_Name
      value: Escudo
      objectReference: {fileID: 0}
    - target: {fileID: 3160066856974181764, guid: 2746583097d4c424ca32fe25bd3401c3,
        type: 3}
      propertyPath: m_Layer
      value: 10
      objectReference: {fileID: 0}
    - target: {fileID: 6094603240730143944, guid: 2746583097d4c424ca32fe25bd3401c3,
        type: 3}
      propertyPath: m_Layer
      value: 10
      objectReference: {fileID: 0}
    - target: {fileID: 7594868916159897103, guid: 2746583097d4c424ca32fe25bd3401c3,
        type: 3}
      propertyPath: m_RootOrder
      value: -1
      objectReference: {fileID: 0}
    - target: {fileID: 7594868916159897103, guid: 2746583097d4c424ca32fe25bd3401c3,
        type: 3}
      propertyPath: m_LocalPosition.x
      value: 0
      objectReference: {fileID: 0}
    - target: {fileID: 7594868916159897103, guid: 2746583097d4c424ca32fe25bd3401c3,
        type: 3}
      propertyPath: m_LocalPosition.y
      value: 0.183
      objectReference: {fileID: 0}
    - target: {fileID: 7594868916159897103, guid: 2746583097d4c424ca32fe25bd3401c3,
        type: 3}
      propertyPath: m_LocalPosition.z
      value: 0.004
      objectReference: {fileID: 0}
    - target: {fileID: 7594868916159897103, guid: 2746583097d4c424ca32fe25bd3401c3,
        type: 3}
      propertyPath: m_LocalRotation.w
      value: 0.99994445
      objectReference: {fileID: 0}
    - target: {fileID: 7594868916159897103, guid: 2746583097d4c424ca32fe25bd3401c3,
        type: 3}
      propertyPath: m_LocalRotation.x
      value: 0.01053945
      objectReference: {fileID: 0}
    - target: {fileID: 7594868916159897103, guid: 2746583097d4c424ca32fe25bd3401c3,
        type: 3}
      propertyPath: m_LocalRotation.y
      value: 0.00000009918996
      objectReference: {fileID: 0}
    - target: {fileID: 7594868916159897103, guid: 2746583097d4c424ca32fe25bd3401c3,
        type: 3}
      propertyPath: m_LocalRotation.z
      value: -0.000050784864
      objectReference: {fileID: 0}
    - target: {fileID: 7594868916159897103, guid: 2746583097d4c424ca32fe25bd3401c3,
        type: 3}
      propertyPath: m_LocalEulerAnglesHint.x
      value: 0
      objectReference: {fileID: 0}
    - target: {fileID: 7594868916159897103, guid: 2746583097d4c424ca32fe25bd3401c3,
        type: 3}
      propertyPath: m_LocalEulerAnglesHint.y
      value: 0
      objectReference: {fileID: 0}
    - target: {fileID: 7594868916159897103, guid: 2746583097d4c424ca32fe25bd3401c3,
        type: 3}
      propertyPath: m_LocalEulerAnglesHint.z
      value: 0
      objectReference: {fileID: 0}
    m_RemovedComponents: []
    m_RemovedGameObjects: []
    m_AddedGameObjects: []
    m_AddedComponents:
    - targetCorrespondingSourceObject: {fileID: 3160066856974181764, guid: 2746583097d4c424ca32fe25bd3401c3,
        type: 3}
      insertIndex: -1
      addedObject: {fileID: 58070844178616247}
  m_SourcePrefab: {fileID: 100100000, guid: 2746583097d4c424ca32fe25bd3401c3, type: 3}
--- !u!4 &2350073266694322850 stripped
Transform:
  m_CorrespondingSourceObject: {fileID: 7594868916159897103, guid: 2746583097d4c424ca32fe25bd3401c3,
    type: 3}
  m_PrefabInstance: {fileID: 5330931710364820653}
  m_PrefabAsset: {fileID: 0}
--- !u!1 &7071098045035135273 stripped
GameObject:
  m_CorrespondingSourceObject: {fileID: 3160066856974181764, guid: 2746583097d4c424ca32fe25bd3401c3,
    type: 3}
  m_PrefabInstance: {fileID: 5330931710364820653}
  m_PrefabAsset: {fileID: 0}
--- !u!65 &58070844178616247
BoxCollider:
  m_ObjectHideFlags: 0
  m_CorrespondingSourceObject: {fileID: 0}
  m_PrefabInstance: {fileID: 0}
  m_PrefabAsset: {fileID: 0}
  m_GameObject: {fileID: 7071098045035135273}
  m_Material: {fileID: 0}
  m_IncludeLayers:
    serializedVersion: 2
    m_Bits: 0
  m_ExcludeLayers:
    serializedVersion: 2
    m_Bits: 0
  m_LayerOverridePriority: 0
  m_IsTrigger: 0
  m_ProvidesContacts: 0
  m_Enabled: 0
  serializedVersion: 3
  m_Size: {x: 0.9735552, y: 0.31534716, z: 0.5849647}
  m_Center: {x: 0.1567618, y: -0.0923269, z: 0.042482473}
--- !u!1001 &6458858467530089789
PrefabInstance:
  m_ObjectHideFlags: 0
  serializedVersion: 2
  m_Modification:
    serializedVersion: 3
    m_TransformParent: {fileID: 0}
    m_Modifications:
    - target: {fileID: 11751205681939491, guid: 0f2f5939920a3db48b58b3cdc1ba03d3,
        type: 3}
      propertyPath: m_Controller
      value: 
      objectReference: {fileID: 9100000, guid: 2505751afd2ac654d9d530c2bb4635d4, type: 2}
    - target: {fileID: 2666846228692351087, guid: 0f2f5939920a3db48b58b3cdc1ba03d3,
        type: 3}
      propertyPath: m_RootOrder
      value: -1
      objectReference: {fileID: 0}
    - target: {fileID: 2666846228692351087, guid: 0f2f5939920a3db48b58b3cdc1ba03d3,
        type: 3}
      propertyPath: m_LocalPosition.x
      value: 0
      objectReference: {fileID: 0}
    - target: {fileID: 2666846228692351087, guid: 0f2f5939920a3db48b58b3cdc1ba03d3,
        type: 3}
      propertyPath: m_LocalPosition.y
      value: 0
      objectReference: {fileID: 0}
    - target: {fileID: 2666846228692351087, guid: 0f2f5939920a3db48b58b3cdc1ba03d3,
        type: 3}
      propertyPath: m_LocalPosition.z
      value: 0
      objectReference: {fileID: 0}
    - target: {fileID: 2666846228692351087, guid: 0f2f5939920a3db48b58b3cdc1ba03d3,
        type: 3}
      propertyPath: m_LocalRotation.w
      value: 1
      objectReference: {fileID: 0}
    - target: {fileID: 2666846228692351087, guid: 0f2f5939920a3db48b58b3cdc1ba03d3,
        type: 3}
      propertyPath: m_LocalRotation.x
      value: -0
      objectReference: {fileID: 0}
    - target: {fileID: 2666846228692351087, guid: 0f2f5939920a3db48b58b3cdc1ba03d3,
        type: 3}
      propertyPath: m_LocalRotation.y
      value: -0
      objectReference: {fileID: 0}
    - target: {fileID: 2666846228692351087, guid: 0f2f5939920a3db48b58b3cdc1ba03d3,
        type: 3}
      propertyPath: m_LocalRotation.z
      value: -0
      objectReference: {fileID: 0}
    - target: {fileID: 2666846228692351087, guid: 0f2f5939920a3db48b58b3cdc1ba03d3,
        type: 3}
      propertyPath: m_LocalEulerAnglesHint.x
      value: 0
      objectReference: {fileID: 0}
    - target: {fileID: 2666846228692351087, guid: 0f2f5939920a3db48b58b3cdc1ba03d3,
        type: 3}
      propertyPath: m_LocalEulerAnglesHint.y
      value: 0
      objectReference: {fileID: 0}
    - target: {fileID: 2666846228692351087, guid: 0f2f5939920a3db48b58b3cdc1ba03d3,
        type: 3}
      propertyPath: m_LocalEulerAnglesHint.z
      value: 0
      objectReference: {fileID: 0}
    - target: {fileID: 4545500299025623096, guid: 0f2f5939920a3db48b58b3cdc1ba03d3,
        type: 3}
      propertyPath: m_MeleeEnemySO
      value: 
      objectReference: {fileID: 11400000, guid: 394bb95e8edc83d458e1f7b69d4cb3d0,
        type: 2}
    - target: {fileID: 4545500299025623096, guid: 0f2f5939920a3db48b58b3cdc1ba03d3,
        type: 3}
      propertyPath: m_EnemigoMuerto
      value: 
      objectReference: {fileID: 11400000, guid: 0fa3bfff8f765dc4f82b7a3b7f10a95d,
        type: 2}
    - target: {fileID: 9087721662076749239, guid: 0f2f5939920a3db48b58b3cdc1ba03d3,
        type: 3}
      propertyPath: m_Name
      value: MeleeEscudo
      objectReference: {fileID: 0}
    m_RemovedComponents: []
    m_RemovedGameObjects: []
    m_AddedGameObjects:
    - targetCorrespondingSourceObject: {fileID: 1931984395353553724, guid: 0f2f5939920a3db48b58b3cdc1ba03d3,
        type: 3}
      insertIndex: -1
      addedObject: {fileID: 2350073266694322850}
    m_AddedComponents: []
  m_SourcePrefab: {fileID: 100100000, guid: 0f2f5939920a3db48b58b3cdc1ba03d3, type: 3}
--- !u!4 &4858733207560052225 stripped
Transform:
  m_CorrespondingSourceObject: {fileID: 1931984395353553724, guid: 0f2f5939920a3db48b58b3cdc1ba03d3,
    type: 3}
  m_PrefabInstance: {fileID: 6458858467530089789}
  m_PrefabAsset: {fileID: 0}
