%YAML 1.1
%TAG !u! tag:unity3d.com,2011:
--- !u!114 &11400000
MonoBehaviour:
  m_ObjectHideFlags: 0
  m_CorrespondingSourceObject: {fileID: 0}
  m_PrefabInstance: {fileID: 0}
  m_PrefabAsset: {fileID: 0}
  m_GameObject: {fileID: 0}
  m_Enabled: 1
  m_EditorHideFlags: 0
  m_Script: {fileID: 11500000, guid: 36d45d2a8a186d248afbb46269c7c6de, type: 3}
  m_Name: MeleeVelozSO
  m_EditorClassIdentifier: 
  m_TipoEnemigo: 5
  m_TipoPocion: 2
  m_VidaMax: 2
  m_Velocidad: 7
  m_VelocidadRotacion: 2
  m_Renderer: {fileID: 0}
  m_TiempoInvulnerabilidad: 2
  m_DesplazamientoEnElForwardDeEsferaDeteccion: 0.88
  m_RadioEsferaDeteccion: 5
  m_MasksEsferaDeteccion:
    serializedVersion: 2
    m_Bits: 8
  m_DesplazamientoEnElForwardDeEsferaAtaqueODisparo: 1
  m_RadioEsferaAtaqueODisparo: 1
  m_DistanciaAlPlayer: 1
  m_DanoAtaqueODisparo: 1
  m_VelocidadDanoAtaqueODisparo: 3
  m_TiempoEsperaAtaqueODisparo: 1
  m_TiempoHuyendo: 2
  m_TiempoEsperaDefensa: 3
  m_MasksEsferaAtaqueODisparo:
    serializedVersion: 2
    m_Bits: 520
  m_MasksDisparo:
    serializedVersion: 2
    m_Bits: 0
  m_AreaPatrullaje: Area 1
  m_TiempoEsperaEnPatrullaje: 2
  m_PuntosPocion: 5
