%YAML 1.1
%TAG !u! tag:unity3d.com,2011:
--- !u!114 &-8950288214794466853
MonoBehaviour:
  m_ObjectHideFlags: 11
  m_CorrespondingSourceObject: {fileID: 0}
  m_PrefabInstance: {fileID: 0}
  m_PrefabAsset: {fileID: 0}
  m_GameObject: {fileID: 0}
  m_Enabled: 1
  m_EditorHideFlags: 0
  m_Script: {fileID: 11500000, guid: d0353a89b1f911e48b9e16bdc9f2e058, type: 3}
  m_Name: 
  m_EditorClassIdentifier: 
  version: 7
--- !u!21 &2100000
Material:
  serializedVersion: 8
  m_ObjectHideFlags: 0
  m_CorrespondingSourceObject: {fileID: 0}
  m_PrefabInstance: {fileID: 0}
  m_PrefabAsset: {fileID: 0}
  m_Name: RB_MAT_Lavastone
  m_Shader: {fileID: -6465566751694194690, guid: 05370cb7f66c4424bb2377aa08a69bb3,
    type: 3}
  m_Parent: {fileID: 0}
  m_ModifiedSerializedProperties: 0
  m_ValidKeywords: []
  m_InvalidKeywords: []
  m_LightmapFlags: 4
  m_EnableInstancingVariants: 0
  m_DoubleSidedGI: 0
  m_CustomRenderQueue: -1
  stringTagMap:
    MotionVector: User
  disabledShaderPasses:
  - MOTIONVECTORS
  m_LockedProperties: 
  m_SavedProperties:
    serializedVersion: 3
    m_TexEnvs:
    - Texture2D_15B11859:
        m_Texture: {fileID: 2800000, guid: 64ea338038be85240ab3d462590a76af, type: 3}
        m_Scale: {x: 1, y: 1}
        m_Offset: {x: 0, y: 0}
    - Texture2D_63D1A026:
        m_Texture: {fileID: 2800000, guid: 94d79cc3b97cd4e48b71fee2ffbb4375, type: 3}
        m_Scale: {x: 1, y: 1}
        m_Offset: {x: 0, y: 0}
    - Texture2D_874FBDDD:
        m_Texture: {fileID: 2800000, guid: bbb3d05b27744f94d97e0d3b21bde31f, type: 3}
        m_Scale: {x: 1, y: 1}
        m_Offset: {x: 0, y: 0}
    - _AnisotropyMap:
        m_Texture: {fileID: 0}
        m_Scale: {x: 1, y: 1}
        m_Offset: {x: 0, y: 0}
    - _BaseColorMap:
        m_Texture: {fileID: 0}
        m_Scale: {x: 1, y: 1}
        m_Offset: {x: 0, y: 0}
    - _BentNormalMap:
        m_Texture: {fileID: 0}
        m_Scale: {x: 1, y: 1}
        m_Offset: {x: 0, y: 0}
    - _BentNormalMapOS:
        m_Texture: {fileID: 0}
        m_Scale: {x: 1, y: 1}
        m_Offset: {x: 0, y: 0}
    - _CoatMaskMap:
        m_Texture: {fileID: 0}
        m_Scale: {x: 1, y: 1}
        m_Offset: {x: 0, y: 0}
    - _DetailMap:
        m_Texture: {fileID: 0}
        m_Scale: {x: 1, y: 1}
        m_Offset: {x: 0, y: 0}
    - _DistortionVectorMap:
        m_Texture: {fileID: 0}
        m_Scale: {x: 1, y: 1}
        m_Offset: {x: 0, y: 0}
    - _EmissiveColorMap:
        m_Texture: {fileID: 0}
        m_Scale: {x: 1, y: 1}
        m_Offset: {x: 0, y: 0}
    - _HeightMap:
        m_Texture: {fileID: 0}
        m_Scale: {x: 1, y: 1}
        m_Offset: {x: 0, y: 0}
    - _IridescenceMaskMap:
        m_Texture: {fileID: 0}
        m_Scale: {x: 1, y: 1}
        m_Offset: {x: 0, y: 0}
    - _IridescenceThicknessMap:
        m_Texture: {fileID: 0}
        m_Scale: {x: 1, y: 1}
        m_Offset: {x: 0, y: 0}
    - _MainTex:
        m_Texture: {fileID: 0}
        m_Scale: {x: 1, y: 1}
        m_Offset: {x: 0, y: 0}
    - _MaskMap:
        m_Texture: {fileID: 0}
        m_Scale: {x: 1, y: 1}
        m_Offset: {x: 0, y: 0}
    - _NormalMap:
        m_Texture: {fileID: 0}
        m_Scale: {x: 1, y: 1}
        m_Offset: {x: 0, y: 0}
    - _NormalMapOS:
        m_Texture: {fileID: 0}
        m_Scale: {x: 1, y: 1}
        m_Offset: {x: 0, y: 0}
    - _SpecularColorMap:
        m_Texture: {fileID: 0}
        m_Scale: {x: 1, y: 1}
        m_Offset: {x: 0, y: 0}
    - _SubsurfaceMaskMap:
        m_Texture: {fileID: 0}
        m_Scale: {x: 1, y: 1}
        m_Offset: {x: 0, y: 0}
    - _TangentMap:
        m_Texture: {fileID: 0}
        m_Scale: {x: 1, y: 1}
        m_Offset: {x: 0, y: 0}
    - _TangentMapOS:
        m_Texture: {fileID: 0}
        m_Scale: {x: 1, y: 1}
        m_Offset: {x: 0, y: 0}
    - _ThicknessMap:
        m_Texture: {fileID: 0}
        m_Scale: {x: 1, y: 1}
        m_Offset: {x: 0, y: 0}
    - _TransmittanceColorMap:
        m_Texture: {fileID: 0}
        m_Scale: {x: 1, y: 1}
        m_Offset: {x: 0, y: 0}
    - unity_Lightmaps:
        m_Texture: {fileID: 0}
        m_Scale: {x: 1, y: 1}
        m_Offset: {x: 0, y: 0}
    - unity_LightmapsInd:
        m_Texture: {fileID: 0}
        m_Scale: {x: 1, y: 1}
        m_Offset: {x: 0, y: 0}
    - unity_ShadowMasks:
        m_Texture: {fileID: 0}
        m_Scale: {x: 1, y: 1}
        m_Offset: {x: 0, y: 0}
    m_Ints: []
    m_Floats:
    - Vector1_4DEDE00F: 0.1
    - Vector1_56558B84: 10
    - Vector1_725FC56E: 1
    - Vector1_77005B12: 0.4
    - Vector1_8244795B: 1
    - Vector1_933B3AB7: 0.2
    - Vector1_97256041: 1
    - Vector1_9BEC8C9E: 1
    - Vector1_D11518A5: 5
    - Vector1_DF4A38CF: 0
    - _AORemapMax: 1
    - _AORemapMin: 0
    - _ATDistance: 1
    - _AlbedoAffectEmissive: 0
    - _AlphaCutoff: 0.5
    - _AlphaCutoffEnable: 0
    - _AlphaCutoffPostpass: 0.5
    - _AlphaCutoffPrepass: 0.5
    - _AlphaCutoffShadow: 0.5
    - _AlphaDstBlend: 0
    - _AlphaSrcBlend: 1
    - _Anisotropy: 0
    - _BlendMode: 0
    - _CoatMask: 0
    - _CullMode: 2
    - _CullModeForward: 2
    - _Cutoff: 0.5
    - _DepthOffsetEnable: 0
    - _DetailAlbedoScale: 1
    - _DetailNormalScale: 1
    - _DetailSmoothnessScale: 1
    - _DiffusionProfile: 0
    - _DiffusionProfileHash: 0
    - _DisplacementLockObjectScale: 1
    - _DisplacementLockTilingScale: 1
    - _DisplacementMode: 0
    - _DistortionBlendMode: 0
    - _DistortionBlurBlendMode: 0
    - _DistortionBlurDstBlend: 0
    - _DistortionBlurRemapMax: 1
    - _DistortionBlurRemapMin: 0
    - _DistortionBlurScale: 1
    - _DistortionBlurSrcBlend: 0
    - _DistortionDepthTest: 1
    - _DistortionDstBlend: 0
    - _DistortionEnable: 0
    - _DistortionScale: 1
    - _DistortionSrcBlend: 0
    - _DistortionVectorBias: -1
    - _DistortionVectorScale: 2
    - _DoubleSidedEnable: 0
    - _DoubleSidedNormalMode: 1
    - _DstBlend: 0
    - _EmissiveColorMode: 1
    - _EmissiveExposureWeight: 1
    - _EmissiveIntensity: 1
    - _EmissiveIntensityUnit: 0
    - _EnableBlendModePreserveSpecularLighting: 1
    - _EnableFogOnTransparent: 1
    - _EnableGeometricSpecularAA: 0
    - _EnableSpecularOcclusion: 0
    - _EnergyConservingSpecularColor: 1
    - _HdrpVersion: 2
    - _HeightAmplitude: 0.02
    - _HeightCenter: 0.5
    - _HeightMapParametrization: 0
    - _HeightMax: 1
    - _HeightMin: -1
    - _HeightOffset: 0
    - _HeightPoMAmplitude: 2
    - _HeightTessAmplitude: 2
    - _HeightTessCenter: 0.5
    - _InvTilingScale: 1
    - _Ior: 1
    - _IridescenceMask: 1
    - _IridescenceThickness: 1
    - _LinkDetailsWithBase: 1
    - _MaterialID: 1
    - _Metallic: 0
    - _NormalMapSpace: 0
    - _NormalScale: 1
    - _PPDLodThreshold: 5
    - _PPDMaxSamples: 15
    - _PPDMinSamples: 5
    - _PPDPrimitiveLength: 1
    - _PPDPrimitiveWidth: 1
    - _QueueControl: 0
    - _QueueOffset: 0
    - _ReceivesSSR: 1
    - _RefractionModel: 0
    - _SSRefractionProjectionModel: 0
    - _Smoothness: 0.5
    - _SmoothnessRemapMax: 1
    - _SmoothnessRemapMin: 0
    - _SpecularAAScreenSpaceVariance: 0.1
    - _SpecularAAThreshold: 0.2
    - _SrcBlend: 1
    - _StencilRef: 2
    - _StencilRefDepth: 0
    - _StencilRefDistortionVec: 64
    - _StencilRefGBuffer: 2
    - _StencilRefMV: 128
    - _StencilWriteMask: 3
    - _StencilWriteMaskDepth: 32
    - _StencilWriteMaskDistortionVec: 64
    - _StencilWriteMaskGBuffer: 3
    - _StencilWriteMaskMV: 128
    - _SubsurfaceMask: 1
    - _SupportDecals: 1
    - _SurfaceType: 0
    - _TexWorldScale: 1
    - _TexWorldScaleEmissive: 1
    - _Thickness: 1
    - _ThicknessMultiplier: 1
    - _TransmissionEnable: 1
    - _TransparentBackfaceEnable: 0
    - _TransparentCullMode: 2
    - _TransparentDepthPostpassEnable: 0
    - _TransparentDepthPrepassEnable: 0
    - _TransparentSortPriority: 0
    - _TransparentWritingMotionVec: 0
    - _UVBase: 0
    - _UVDetail: 0
    - _UVEmissive: 0
    - _UseEmissiveIntensity: 0
    - _UseShadowThreshold: 0
    - _ZTestDepthEqualForOpaque: 4
    - _ZTestGBuffer: 4
    - _ZTestModeDistortion: 8
    - _ZTestTransparent: 4
    - _ZWrite: 1
    m_Colors:
    - Color_28BB1001: {r: 1, g: 0.06511332, b: 0, a: 0}
    - Color_423ED5F5: {r: 1, g: 0.03724602, b: 0, a: 0}
    - _BaseColor: {r: 1, g: 1, b: 1, a: 1}
    - _BaseColorMap_MipInfo: {r: 0, g: 0, b: 0, a: 0}
    - _Color: {r: 1, g: 1, b: 1, a: 1}
    - _DiffusionProfileAsset: {r: 0, g: 0, b: 0, a: 0}
    - _DoubleSidedConstants: {r: 1, g: 1, b: -1, a: 0}
    - _EmissionColor: {r: 1, g: 1, b: 1, a: 1}
    - _EmissiveColor: {r: 0, g: 0, b: 0, a: 1}
    - _EmissiveColorLDR: {r: 0, g: 0, b: 0, a: 1}
    - _InvPrimScale: {r: 1, g: 1, b: 0, a: 0}
    - _IridescenceThicknessRemap: {r: 0, g: 1, b: 0, a: 0}
    - _SpecularColor: {r: 1, g: 1, b: 1, a: 1}
    - _ThicknessRemap: {r: 0, g: 1, b: 0, a: 0}
    - _TransmittanceColor: {r: 1, g: 1, b: 1, a: 1}
    - _UVDetailsMappingMask: {r: 1, g: 0, b: 0, a: 0}
    - _UVMappingMask: {r: 1, g: 0, b: 0, a: 0}
    - _UVMappingMaskEmissive: {r: 1, g: 0, b: 0, a: 0}
  m_BuildTextureStacks: []
