%YAML 1.1
%TAG !u! tag:unity3d.com,2011:
--- !u!1001 &6337535933969038491
PrefabInstance:
  m_ObjectHideFlags: 0
  serializedVersion: 2
  m_Modification:
    serializedVersion: 3
    m_TransformParent: {fileID: 0}
    m_Modifications:
    - target: {fileID: 100000, guid: 90cb5084ee519bf4a99ae30668e654d0, type: 3}
      propertyPath: m_Name
      value: PuertaHierro 1
      objectReference: {fileID: 0}
    - target: {fileID: 400000, guid: 90cb5084ee519bf4a99ae30668e654d0, type: 3}
      propertyPath: m_RootOrder
      value: -1
      objectReference: {fileID: 0}
    - target: {fileID: 400000, guid: 90cb5084ee519bf4a99ae30668e654d0, type: 3}
      propertyPath: m_LocalScale.x
      value: 3.5
      objectReference: {fileID: 0}
    - target: {fileID: 400000, guid: 90cb5084ee519bf4a99ae30668e654d0, type: 3}
      propertyPath: m_LocalScale.y
      value: 3
      objectReference: {fileID: 0}
    - target: {fileID: 400000, guid: 90cb5084ee519bf4a99ae30668e654d0, type: 3}
      propertyPath: m_LocalScale.z
      value: 3
      objectReference: {fileID: 0}
    - target: {fileID: 400000, guid: 90cb5084ee519bf4a99ae30668e654d0, type: 3}
      propertyPath: m_LocalPosition.x
      value: -5.11
      objectReference: {fileID: 0}
    - target: {fileID: 400000, guid: 90cb5084ee519bf4a99ae30668e654d0, type: 3}
      propertyPath: m_LocalPosition.y
      value: -0.1
      objectReference: {fileID: 0}
    - target: {fileID: 400000, guid: 90cb5084ee519bf4a99ae30668e654d0, type: 3}
      propertyPath: m_LocalPosition.z
      value: 8.17
      objectReference: {fileID: 0}
    - target: {fileID: 400000, guid: 90cb5084ee519bf4a99ae30668e654d0, type: 3}
      propertyPath: m_LocalRotation.w
      value: 1
      objectReference: {fileID: 0}
    - target: {fileID: 400000, guid: 90cb5084ee519bf4a99ae30668e654d0, type: 3}
      propertyPath: m_LocalRotation.x
      value: 0.000000021855694
      objectReference: {fileID: 0}
    - target: {fileID: 400000, guid: 90cb5084ee519bf4a99ae30668e654d0, type: 3}
      propertyPath: m_LocalRotation.y
      value: 0
      objectReference: {fileID: 0}
    - target: {fileID: 400000, guid: 90cb5084ee519bf4a99ae30668e654d0, type: 3}
      propertyPath: m_LocalRotation.z
      value: -0
      objectReference: {fileID: 0}
    - target: {fileID: 400000, guid: 90cb5084ee519bf4a99ae30668e654d0, type: 3}
      propertyPath: m_LocalEulerAnglesHint.x
      value: 0
      objectReference: {fileID: 0}
    - target: {fileID: 400000, guid: 90cb5084ee519bf4a99ae30668e654d0, type: 3}
      propertyPath: m_LocalEulerAnglesHint.y
      value: 0
      objectReference: {fileID: 0}
    - target: {fileID: 400000, guid: 90cb5084ee519bf4a99ae30668e654d0, type: 3}
      propertyPath: m_LocalEulerAnglesHint.z
      value: 0
      objectReference: {fileID: 0}
    m_RemovedComponents:
    - {fileID: 6400000, guid: 90cb5084ee519bf4a99ae30668e654d0, type: 3}
    m_RemovedGameObjects: []
    m_AddedGameObjects: []
    m_AddedComponents:
    - targetCorrespondingSourceObject: {fileID: 100000, guid: 90cb5084ee519bf4a99ae30668e654d0,
        type: 3}
      insertIndex: -1
      addedObject: {fileID: 2794038323668889928}
  m_SourcePrefab: {fileID: 100100000, guid: 90cb5084ee519bf4a99ae30668e654d0, type: 3}
--- !u!1 &6337535933969005115 stripped
GameObject:
  m_CorrespondingSourceObject: {fileID: 100000, guid: 90cb5084ee519bf4a99ae30668e654d0,
    type: 3}
  m_PrefabInstance: {fileID: 6337535933969038491}
  m_PrefabAsset: {fileID: 0}
--- !u!65 &2794038323668889928
BoxCollider:
  m_ObjectHideFlags: 0
  m_CorrespondingSourceObject: {fileID: 0}
  m_PrefabInstance: {fileID: 0}
  m_PrefabAsset: {fileID: 0}
  m_GameObject: {fileID: 6337535933969005115}
  m_Material: {fileID: 0}
  m_IncludeLayers:
    serializedVersion: 2
    m_Bits: 0
  m_ExcludeLayers:
    serializedVersion: 2
    m_Bits: 0
  m_LayerOverridePriority: 0
  m_IsTrigger: 0
  m_ProvidesContacts: 0
  m_Enabled: 1
  serializedVersion: 3
  m_Size: {x: 1.3386124, y: 2.1229603, z: 0.16294214}
  m_Center: {x: 0.66660196, y: 1.1105713, z: 0.07911377}
