%YAML 1.1
%TAG !u! tag:unity3d.com,2011:
--- !u!1001 &3583672741795215614
PrefabInstance:
  m_ObjectHideFlags: 0
  serializedVersion: 2
  m_Modification:
    serializedVersion: 3
    m_TransformParent: {fileID: 0}
    m_Modifications:
    - target: {fileID: 1844074937006271408, guid: 4357487c53a5fb04689c62989594f796,
        type: 3}
      propertyPath: m_RootOrder
      value: 0
      objectReference: {fileID: 0}
    - target: {fileID: 1844074937006271408, guid: 4357487c53a5fb04689c62989594f796,
        type: 3}
      propertyPath: m_LocalPosition.x
      value: 0
      objectReference: {fileID: 0}
    - target: {fileID: 1844074937006271408, guid: 4357487c53a5fb04689c62989594f796,
        type: 3}
      propertyPath: m_LocalPosition.y
      value: 0
      objectReference: {fileID: 0}
    - target: {fileID: 1844074937006271408, guid: 4357487c53a5fb04689c62989594f796,
        type: 3}
      propertyPath: m_LocalPosition.z
      value: 0
      objectReference: {fileID: 0}
    - target: {fileID: 1844074937006271408, guid: 4357487c53a5fb04689c62989594f796,
        type: 3}
      propertyPath: m_LocalRotation.w
      value: 0.01933678
      objectReference: {fileID: 0}
    - target: {fileID: 1844074937006271408, guid: 4357487c53a5fb04689c62989594f796,
        type: 3}
      propertyPath: m_LocalRotation.x
      value: -0
      objectReference: {fileID: 0}
    - target: {fileID: 1844074937006271408, guid: 4357487c53a5fb04689c62989594f796,
        type: 3}
      propertyPath: m_LocalRotation.y
      value: 0.999813
      objectReference: {fileID: 0}
    - target: {fileID: 1844074937006271408, guid: 4357487c53a5fb04689c62989594f796,
        type: 3}
      propertyPath: m_LocalRotation.z
      value: -0
      objectReference: {fileID: 0}
    - target: {fileID: 1844074937006271408, guid: 4357487c53a5fb04689c62989594f796,
        type: 3}
      propertyPath: m_LocalEulerAnglesHint.x
      value: 0
      objectReference: {fileID: 0}
    - target: {fileID: 1844074937006271408, guid: 4357487c53a5fb04689c62989594f796,
        type: 3}
      propertyPath: m_LocalEulerAnglesHint.y
      value: 177.784
      objectReference: {fileID: 0}
    - target: {fileID: 1844074937006271408, guid: 4357487c53a5fb04689c62989594f796,
        type: 3}
      propertyPath: m_LocalEulerAnglesHint.z
      value: 0
      objectReference: {fileID: 0}
    - target: {fileID: 4074904888289072231, guid: 4357487c53a5fb04689c62989594f796,
        type: 3}
      propertyPath: m_Materials.Array.data[0]
      value: 
      objectReference: {fileID: 2100000, guid: 6d9dcc3f3fef9704f8f4706e0e4d8f9e, type: 2}
    - target: {fileID: 5501692625526501595, guid: 4357487c53a5fb04689c62989594f796,
        type: 3}
      propertyPath: m_Name
      value: SlimeGoldoOro
      objectReference: {fileID: 0}
    - target: {fileID: 8148952169633435460, guid: 4357487c53a5fb04689c62989594f796,
        type: 3}
      propertyPath: m_Materials.Array.data[0]
      value: 
      objectReference: {fileID: 2100000, guid: 6d9dcc3f3fef9704f8f4706e0e4d8f9e, type: 2}
    m_RemovedComponents: []
    m_RemovedGameObjects: []
    m_AddedGameObjects: []
    m_AddedComponents: []
  m_SourcePrefab: {fileID: 100100000, guid: 4357487c53a5fb04689c62989594f796, type: 3}
