%YAML 1.1
%TAG !u! tag:unity3d.com,2011:
--- !u!114 &11400000
MonoBehaviour:
  m_ObjectHideFlags: 0
  m_CorrespondingSourceObject: {fileID: 0}
  m_PrefabInstance: {fileID: 0}
  m_PrefabAsset: {fileID: 0}
  m_GameObject: {fileID: 0}
  m_Enabled: 1
  m_EditorHideFlags: 0
  m_Script: {fileID: 11500000, guid: f262b5725c15d7342b371b19eed3746c, type: 3}
  m_Name: PuzzleLuz02
  m_EditorClassIdentifier: 
  m_CantidadEspejos: 9
  m_PuzzleFinalizado: 0
