%YAML 1.1
%TAG !u! tag:unity3d.com,2011:
--- !u!1001 &1533476049381482789
PrefabInstance:
  m_ObjectHideFlags: 0
  serializedVersion: 2
  m_Modification:
    serializedVersion: 3
    m_TransformParent: {fileID: 0}
    m_Modifications:
    - target: {fileID: -9165807017841404900, guid: 65ec41fe8a55fc940a3edbd5c8527f79,
        type: 3}
      propertyPath: m_Layer
      value: 9
      objectReference: {fileID: 0}
    - target: {fileID: -8679921383154817045, guid: 65ec41fe8a55fc940a3edbd5c8527f79,
        type: 3}
      propertyPath: m_RootOrder
      value: -1
      objectReference: {fileID: 0}
    - target: {fileID: -8679921383154817045, guid: 65ec41fe8a55fc940a3edbd5c8527f79,
        type: 3}
      propertyPath: m_LocalScale.x
      value: 2
      objectReference: {fileID: 0}
    - target: {fileID: -8679921383154817045, guid: 65ec41fe8a55fc940a3edbd5c8527f79,
        type: 3}
      propertyPath: m_LocalScale.y
      value: 2
      objectReference: {fileID: 0}
    - target: {fileID: -8679921383154817045, guid: 65ec41fe8a55fc940a3edbd5c8527f79,
        type: 3}
      propertyPath: m_LocalScale.z
      value: 2
      objectReference: {fileID: 0}
    - target: {fileID: -8679921383154817045, guid: 65ec41fe8a55fc940a3edbd5c8527f79,
        type: 3}
      propertyPath: m_LocalPosition.x
      value: -271.5
      objectReference: {fileID: 0}
    - target: {fileID: -8679921383154817045, guid: 65ec41fe8a55fc940a3edbd5c8527f79,
        type: 3}
      propertyPath: m_LocalPosition.y
      value: 0
      objectReference: {fileID: 0}
    - target: {fileID: -8679921383154817045, guid: 65ec41fe8a55fc940a3edbd5c8527f79,
        type: 3}
      propertyPath: m_LocalPosition.z
      value: 101.36
      objectReference: {fileID: 0}
    - target: {fileID: -8679921383154817045, guid: 65ec41fe8a55fc940a3edbd5c8527f79,
        type: 3}
      propertyPath: m_LocalRotation.w
      value: 1
      objectReference: {fileID: 0}
    - target: {fileID: -8679921383154817045, guid: 65ec41fe8a55fc940a3edbd5c8527f79,
        type: 3}
      propertyPath: m_LocalRotation.x
      value: 0
      objectReference: {fileID: 0}
    - target: {fileID: -8679921383154817045, guid: 65ec41fe8a55fc940a3edbd5c8527f79,
        type: 3}
      propertyPath: m_LocalRotation.y
      value: 0
      objectReference: {fileID: 0}
    - target: {fileID: -8679921383154817045, guid: 65ec41fe8a55fc940a3edbd5c8527f79,
        type: 3}
      propertyPath: m_LocalRotation.z
      value: 0
      objectReference: {fileID: 0}
    - target: {fileID: -8679921383154817045, guid: 65ec41fe8a55fc940a3edbd5c8527f79,
        type: 3}
      propertyPath: m_LocalEulerAnglesHint.x
      value: 0
      objectReference: {fileID: 0}
    - target: {fileID: -8679921383154817045, guid: 65ec41fe8a55fc940a3edbd5c8527f79,
        type: 3}
      propertyPath: m_LocalEulerAnglesHint.y
      value: 0
      objectReference: {fileID: 0}
    - target: {fileID: -8679921383154817045, guid: 65ec41fe8a55fc940a3edbd5c8527f79,
        type: 3}
      propertyPath: m_LocalEulerAnglesHint.z
      value: 0
      objectReference: {fileID: 0}
    - target: {fileID: -7882545294861983853, guid: 65ec41fe8a55fc940a3edbd5c8527f79,
        type: 3}
      propertyPath: m_Layer
      value: 9
      objectReference: {fileID: 0}
    - target: {fileID: -7377296267653521802, guid: 65ec41fe8a55fc940a3edbd5c8527f79,
        type: 3}
      propertyPath: m_Layer
      value: 9
      objectReference: {fileID: 0}
    - target: {fileID: -7146170650842211791, guid: 65ec41fe8a55fc940a3edbd5c8527f79,
        type: 3}
      propertyPath: m_Layer
      value: 9
      objectReference: {fileID: 0}
    - target: {fileID: -6836744447891698784, guid: 65ec41fe8a55fc940a3edbd5c8527f79,
        type: 3}
      propertyPath: m_Layer
      value: 9
      objectReference: {fileID: 0}
    - target: {fileID: -6153058163682697636, guid: 65ec41fe8a55fc940a3edbd5c8527f79,
        type: 3}
      propertyPath: m_Layer
      value: 9
      objectReference: {fileID: 0}
    - target: {fileID: -6010183594998767552, guid: 65ec41fe8a55fc940a3edbd5c8527f79,
        type: 3}
      propertyPath: m_Layer
      value: 9
      objectReference: {fileID: 0}
    - target: {fileID: -5833796673487607414, guid: 65ec41fe8a55fc940a3edbd5c8527f79,
        type: 3}
      propertyPath: m_Layer
      value: 9
      objectReference: {fileID: 0}
    - target: {fileID: -4558190257730414461, guid: 65ec41fe8a55fc940a3edbd5c8527f79,
        type: 3}
      propertyPath: m_Layer
      value: 9
      objectReference: {fileID: 0}
    - target: {fileID: -4523215680933102825, guid: 65ec41fe8a55fc940a3edbd5c8527f79,
        type: 3}
      propertyPath: m_Layer
      value: 9
      objectReference: {fileID: 0}
    - target: {fileID: -4406642683077687281, guid: 65ec41fe8a55fc940a3edbd5c8527f79,
        type: 3}
      propertyPath: m_Layer
      value: 9
      objectReference: {fileID: 0}
    - target: {fileID: -2864925220259752644, guid: 65ec41fe8a55fc940a3edbd5c8527f79,
        type: 3}
      propertyPath: m_Layer
      value: 9
      objectReference: {fileID: 0}
    - target: {fileID: -1643352257137796096, guid: 65ec41fe8a55fc940a3edbd5c8527f79,
        type: 3}
      propertyPath: m_Layer
      value: 9
      objectReference: {fileID: 0}
    - target: {fileID: -1602110335986232181, guid: 65ec41fe8a55fc940a3edbd5c8527f79,
        type: 3}
      propertyPath: m_Layer
      value: 9
      objectReference: {fileID: 0}
    - target: {fileID: -1383804206825816059, guid: 65ec41fe8a55fc940a3edbd5c8527f79,
        type: 3}
      propertyPath: m_Layer
      value: 9
      objectReference: {fileID: 0}
    - target: {fileID: -1361483161046880848, guid: 65ec41fe8a55fc940a3edbd5c8527f79,
        type: 3}
      propertyPath: m_Layer
      value: 9
      objectReference: {fileID: 0}
    - target: {fileID: -1107723873408037369, guid: 65ec41fe8a55fc940a3edbd5c8527f79,
        type: 3}
      propertyPath: m_Layer
      value: 9
      objectReference: {fileID: 0}
    - target: {fileID: -17292570360167147, guid: 65ec41fe8a55fc940a3edbd5c8527f79,
        type: 3}
      propertyPath: m_Layer
      value: 9
      objectReference: {fileID: 0}
    - target: {fileID: 269849067160354349, guid: 65ec41fe8a55fc940a3edbd5c8527f79,
        type: 3}
      propertyPath: m_Layer
      value: 9
      objectReference: {fileID: 0}
    - target: {fileID: 711438268153787977, guid: 65ec41fe8a55fc940a3edbd5c8527f79,
        type: 3}
      propertyPath: m_Layer
      value: 9
      objectReference: {fileID: 0}
    - target: {fileID: 919132149155446097, guid: 65ec41fe8a55fc940a3edbd5c8527f79,
        type: 3}
      propertyPath: m_Name
      value: Caballo
      objectReference: {fileID: 0}
    - target: {fileID: 919132149155446097, guid: 65ec41fe8a55fc940a3edbd5c8527f79,
        type: 3}
      propertyPath: m_Layer
      value: 9
      objectReference: {fileID: 0}
    - target: {fileID: 1453770714425817405, guid: 65ec41fe8a55fc940a3edbd5c8527f79,
        type: 3}
      propertyPath: m_Layer
      value: 9
      objectReference: {fileID: 0}
    - target: {fileID: 2358829869897930693, guid: 65ec41fe8a55fc940a3edbd5c8527f79,
        type: 3}
      propertyPath: m_Layer
      value: 9
      objectReference: {fileID: 0}
    - target: {fileID: 2421523024817543712, guid: 65ec41fe8a55fc940a3edbd5c8527f79,
        type: 3}
      propertyPath: m_Layer
      value: 9
      objectReference: {fileID: 0}
    - target: {fileID: 3202346470328005503, guid: 65ec41fe8a55fc940a3edbd5c8527f79,
        type: 3}
      propertyPath: m_Layer
      value: 9
      objectReference: {fileID: 0}
    - target: {fileID: 3885561296164422270, guid: 65ec41fe8a55fc940a3edbd5c8527f79,
        type: 3}
      propertyPath: m_Layer
      value: 9
      objectReference: {fileID: 0}
    - target: {fileID: 4186467050819501586, guid: 65ec41fe8a55fc940a3edbd5c8527f79,
        type: 3}
      propertyPath: m_Layer
      value: 9
      objectReference: {fileID: 0}
    - target: {fileID: 5039885433693032798, guid: 65ec41fe8a55fc940a3edbd5c8527f79,
        type: 3}
      propertyPath: m_Layer
      value: 9
      objectReference: {fileID: 0}
    - target: {fileID: 5376186406191108919, guid: 65ec41fe8a55fc940a3edbd5c8527f79,
        type: 3}
      propertyPath: m_Layer
      value: 9
      objectReference: {fileID: 0}
    - target: {fileID: 5469990273979449099, guid: 65ec41fe8a55fc940a3edbd5c8527f79,
        type: 3}
      propertyPath: m_Layer
      value: 9
      objectReference: {fileID: 0}
    - target: {fileID: 5797805282498182554, guid: 65ec41fe8a55fc940a3edbd5c8527f79,
        type: 3}
      propertyPath: m_Layer
      value: 9
      objectReference: {fileID: 0}
    - target: {fileID: 6332647850078037265, guid: 65ec41fe8a55fc940a3edbd5c8527f79,
        type: 3}
      propertyPath: m_Layer
      value: 9
      objectReference: {fileID: 0}
    - target: {fileID: 6584955571156257408, guid: 65ec41fe8a55fc940a3edbd5c8527f79,
        type: 3}
      propertyPath: m_Layer
      value: 9
      objectReference: {fileID: 0}
    - target: {fileID: 7070829503180856356, guid: 65ec41fe8a55fc940a3edbd5c8527f79,
        type: 3}
      propertyPath: m_Layer
      value: 9
      objectReference: {fileID: 0}
    - target: {fileID: 7499860536061207058, guid: 65ec41fe8a55fc940a3edbd5c8527f79,
        type: 3}
      propertyPath: m_Layer
      value: 9
      objectReference: {fileID: 0}
    - target: {fileID: 8137447286708997822, guid: 65ec41fe8a55fc940a3edbd5c8527f79,
        type: 3}
      propertyPath: m_Layer
      value: 9
      objectReference: {fileID: 0}
    - target: {fileID: 8419448521830948308, guid: 65ec41fe8a55fc940a3edbd5c8527f79,
        type: 3}
      propertyPath: m_Layer
      value: 9
      objectReference: {fileID: 0}
    - target: {fileID: 8687789663585505489, guid: 65ec41fe8a55fc940a3edbd5c8527f79,
        type: 3}
      propertyPath: m_Layer
      value: 9
      objectReference: {fileID: 0}
    m_RemovedComponents: []
    m_RemovedGameObjects: []
    m_AddedGameObjects: []
    m_AddedComponents: []
  m_SourcePrefab: {fileID: 100100000, guid: 65ec41fe8a55fc940a3edbd5c8527f79, type: 3}
