%YAML 1.1
%TAG !u! tag:unity3d.com,2011:
--- !u!1001 &3009275907559372142
PrefabInstance:
  m_ObjectHideFlags: 0
  serializedVersion: 2
  m_Modification:
    serializedVersion: 3
    m_TransformParent: {fileID: 0}
    m_Modifications:
    - target: {fileID: -8679921383154817045, guid: e234e3a012c1abc41a72aa963ffc7e82,
        type: 3}
      propertyPath: m_RootOrder
      value: -1
      objectReference: {fileID: 0}
    - target: {fileID: -8679921383154817045, guid: e234e3a012c1abc41a72aa963ffc7e82,
        type: 3}
      propertyPath: m_LocalScale.x
      value: 1.5
      objectReference: {fileID: 0}
    - target: {fileID: -8679921383154817045, guid: e234e3a012c1abc41a72aa963ffc7e82,
        type: 3}
      propertyPath: m_LocalScale.y
      value: 1.5
      objectReference: {fileID: 0}
    - target: {fileID: -8679921383154817045, guid: e234e3a012c1abc41a72aa963ffc7e82,
        type: 3}
      propertyPath: m_LocalScale.z
      value: 1.5
      objectReference: {fileID: 0}
    - target: {fileID: -8679921383154817045, guid: e234e3a012c1abc41a72aa963ffc7e82,
        type: 3}
      propertyPath: m_LocalPosition.x
      value: 312.1263
      objectReference: {fileID: 0}
    - target: {fileID: -8679921383154817045, guid: e234e3a012c1abc41a72aa963ffc7e82,
        type: 3}
      propertyPath: m_LocalPosition.y
      value: 0.21
      objectReference: {fileID: 0}
    - target: {fileID: -8679921383154817045, guid: e234e3a012c1abc41a72aa963ffc7e82,
        type: 3}
      propertyPath: m_LocalPosition.z
      value: 76.62694
      objectReference: {fileID: 0}
    - target: {fileID: -8679921383154817045, guid: e234e3a012c1abc41a72aa963ffc7e82,
        type: 3}
      propertyPath: m_LocalRotation.w
      value: 1
      objectReference: {fileID: 0}
    - target: {fileID: -8679921383154817045, guid: e234e3a012c1abc41a72aa963ffc7e82,
        type: 3}
      propertyPath: m_LocalRotation.x
      value: 0
      objectReference: {fileID: 0}
    - target: {fileID: -8679921383154817045, guid: e234e3a012c1abc41a72aa963ffc7e82,
        type: 3}
      propertyPath: m_LocalRotation.y
      value: 0
      objectReference: {fileID: 0}
    - target: {fileID: -8679921383154817045, guid: e234e3a012c1abc41a72aa963ffc7e82,
        type: 3}
      propertyPath: m_LocalRotation.z
      value: 0
      objectReference: {fileID: 0}
    - target: {fileID: -8679921383154817045, guid: e234e3a012c1abc41a72aa963ffc7e82,
        type: 3}
      propertyPath: m_LocalEulerAnglesHint.x
      value: 0
      objectReference: {fileID: 0}
    - target: {fileID: -8679921383154817045, guid: e234e3a012c1abc41a72aa963ffc7e82,
        type: 3}
      propertyPath: m_LocalEulerAnglesHint.y
      value: 0
      objectReference: {fileID: 0}
    - target: {fileID: -8679921383154817045, guid: e234e3a012c1abc41a72aa963ffc7e82,
        type: 3}
      propertyPath: m_LocalEulerAnglesHint.z
      value: 0
      objectReference: {fileID: 0}
    - target: {fileID: 919132149155446097, guid: e234e3a012c1abc41a72aa963ffc7e82,
        type: 3}
      propertyPath: m_Name
      value: Pinguino
      objectReference: {fileID: 0}
    - target: {fileID: 919132149155446097, guid: e234e3a012c1abc41a72aa963ffc7e82,
        type: 3}
      propertyPath: m_Layer
      value: 9
      objectReference: {fileID: 0}
    m_RemovedComponents: []
    m_RemovedGameObjects: []
    m_AddedGameObjects: []
    m_AddedComponents:
    - targetCorrespondingSourceObject: {fileID: 919132149155446097, guid: e234e3a012c1abc41a72aa963ffc7e82,
        type: 3}
      insertIndex: -1
      addedObject: {fileID: 1144662249252550739}
    - targetCorrespondingSourceObject: {fileID: 919132149155446097, guid: e234e3a012c1abc41a72aa963ffc7e82,
        type: 3}
      insertIndex: -1
      addedObject: {fileID: 3661307304868350938}
  m_SourcePrefab: {fileID: 100100000, guid: e234e3a012c1abc41a72aa963ffc7e82, type: 3}
--- !u!1 &2666818928360720447 stripped
GameObject:
  m_CorrespondingSourceObject: {fileID: 919132149155446097, guid: e234e3a012c1abc41a72aa963ffc7e82,
    type: 3}
  m_PrefabInstance: {fileID: 3009275907559372142}
  m_PrefabAsset: {fileID: 0}
--- !u!65 &1144662249252550739
BoxCollider:
  m_ObjectHideFlags: 0
  m_CorrespondingSourceObject: {fileID: 0}
  m_PrefabInstance: {fileID: 0}
  m_PrefabAsset: {fileID: 0}
  m_GameObject: {fileID: 2666818928360720447}
  m_Material: {fileID: 0}
  m_IncludeLayers:
    serializedVersion: 2
    m_Bits: 0
  m_ExcludeLayers:
    serializedVersion: 2
    m_Bits: 0
  m_LayerOverridePriority: 0
  m_IsTrigger: 0
  m_ProvidesContacts: 0
  m_Enabled: 1
  serializedVersion: 3
  m_Size: {x: 1, y: 1.0872644, z: 1}
  m_Center: {x: 0, y: 0.38913816, z: 0}
--- !u!208 &3661307304868350938
NavMeshObstacle:
  m_ObjectHideFlags: 0
  m_CorrespondingSourceObject: {fileID: 0}
  m_PrefabInstance: {fileID: 0}
  m_PrefabAsset: {fileID: 0}
  m_GameObject: {fileID: 2666818928360720447}
  m_Enabled: 1
  serializedVersion: 3
  m_Shape: 1
  m_Extents: {x: 0.5, y: 0.5, z: 0.5}
  m_MoveThreshold: 0.1
  m_Carve: 1
  m_CarveOnlyStationary: 1
  m_Center: {x: 0, y: 0, z: 0}
  m_TimeToStationary: 0.5
