%YAML 1.1
%TAG !u! tag:unity3d.com,2011:
--- !u!114 &11400000
MonoBehaviour:
  m_ObjectHideFlags: 0
  m_CorrespondingSourceObject: {fileID: 0}
  m_PrefabInstance: {fileID: 0}
  m_PrefabAsset: {fileID: 0}
  m_GameObject: {fileID: 0}
  m_Enabled: 1
  m_EditorHideFlags: 0
  m_Script: {fileID: 11500000, guid: b049f9486ea68e24696863f5942e226e, type: 3}
  m_Name: SOCubo
  m_EditorClassIdentifier: 
  nombre: 4
  dano: 0
  cooldown: 0
  tiempo: 0
  velocidad: 0
  distancia: 0
  imagen: {fileID: 21300000, guid: 06e0dae0c6bcf204cacf08bc0152c60b, type: 3}
