%YAML 1.1
%TAG !u! tag:unity3d.com,2011:
--- !u!1 &3848532931995174419
GameObject:
  m_ObjectHideFlags: 0
  m_CorrespondingSourceObject: {fileID: 0}
  m_PrefabInstance: {fileID: 0}
  m_PrefabAsset: {fileID: 0}
  serializedVersion: 6
  m_Component:
  - component: {fileID: 5885272348530858017}
  - component: {fileID: 1769707130917209262}
  m_Layer: 0
  m_Name: Ventilador
  m_TagString: Untagged
  m_Icon: {fileID: 2488908585195742037, guid: 0000000000000000d000000000000000, type: 0}
  m_NavMeshLayer: 0
  m_StaticEditorFlags: 0
  m_IsActive: 1
--- !u!4 &5885272348530858017
Transform:
  m_ObjectHideFlags: 0
  m_CorrespondingSourceObject: {fileID: 0}
  m_PrefabInstance: {fileID: 0}
  m_PrefabAsset: {fileID: 0}
  m_GameObject: {fileID: 3848532931995174419}
  m_LocalRotation: {x: 0, y: 0.7071068, z: 0, w: 0.7071068}
  m_LocalPosition: {x: 128.8, y: 0.65, z: -2.5}
  m_LocalScale: {x: 1, y: 1, z: 1}
  m_ConstrainProportionsScale: 0
  m_Children:
  - {fileID: 1920155380860171684}
  - {fileID: 330451708164461536}
  m_Father: {fileID: 0}
  m_RootOrder: -1
  m_LocalEulerAnglesHint: {x: 0, y: 90, z: 0}
--- !u!114 &1769707130917209262
MonoBehaviour:
  m_ObjectHideFlags: 0
  m_CorrespondingSourceObject: {fileID: 0}
  m_PrefabInstance: {fileID: 0}
  m_PrefabAsset: {fileID: 0}
  m_GameObject: {fileID: 3848532931995174419}
  m_Enabled: 1
  m_EditorHideFlags: 0
  m_Script: {fileID: 11500000, guid: 54a128347ad518e4c8adcd3477c46329, type: 3}
  m_Name: 
  m_EditorClassIdentifier: 
  m_Activo: 0
  m_CorrienteDeAire: {fileID: 7423867455508838046}
--- !u!1 &7423867455508838046
GameObject:
  m_ObjectHideFlags: 0
  m_CorrespondingSourceObject: {fileID: 0}
  m_PrefabInstance: {fileID: 0}
  m_PrefabAsset: {fileID: 0}
  serializedVersion: 6
  m_Component:
  - component: {fileID: 1920155380860171684}
  - component: {fileID: 7702694392344722028}
  - component: {fileID: 8497671488781858438}
  - component: {fileID: 1052924231726206942}
  - component: {fileID: 5297012192441805759}
  m_Layer: 0
  m_Name: ObjetoQueHacerVolar(Arriba) (1)
  m_TagString: Untagged
  m_Icon: {fileID: 0}
  m_NavMeshLayer: 0
  m_StaticEditorFlags: 0
  m_IsActive: 1
--- !u!4 &1920155380860171684
Transform:
  m_ObjectHideFlags: 0
  m_CorrespondingSourceObject: {fileID: 0}
  m_PrefabInstance: {fileID: 0}
  m_PrefabAsset: {fileID: 0}
  m_GameObject: {fileID: 7423867455508838046}
  m_LocalRotation: {x: -0, y: -0, z: 0.08981137, w: 0.99595886}
  m_LocalPosition: {x: 5.3695455, y: -0.37799835, z: 0.00000047683716}
  m_LocalScale: {x: 1, y: 1, z: 1}
  m_ConstrainProportionsScale: 0
  m_Children: []
  m_Father: {fileID: 5885272348530858017}
  m_RootOrder: -1
  m_LocalEulerAnglesHint: {x: 0, y: 0, z: 10.306}
--- !u!33 &7702694392344722028
MeshFilter:
  m_ObjectHideFlags: 0
  m_CorrespondingSourceObject: {fileID: 0}
  m_PrefabInstance: {fileID: 0}
  m_PrefabAsset: {fileID: 0}
  m_GameObject: {fileID: 7423867455508838046}
  m_Mesh: {fileID: 10202, guid: 0000000000000000e000000000000000, type: 0}
--- !u!23 &8497671488781858438
MeshRenderer:
  m_ObjectHideFlags: 0
  m_CorrespondingSourceObject: {fileID: 0}
  m_PrefabInstance: {fileID: 0}
  m_PrefabAsset: {fileID: 0}
  m_GameObject: {fileID: 7423867455508838046}
  m_Enabled: 0
  m_CastShadows: 1
  m_ReceiveShadows: 1
  m_DynamicOccludee: 1
  m_StaticShadowCaster: 0
  m_MotionVectors: 1
  m_LightProbeUsage: 1
  m_ReflectionProbeUsage: 1
  m_RayTracingMode: 2
  m_RayTraceProcedural: 0
  m_RenderingLayerMask: 1
  m_RendererPriority: 0
  m_Materials:
  - {fileID: 2100000, guid: 31321ba15b8f8eb4c954353edc038b1d, type: 2}
  m_StaticBatchInfo:
    firstSubMesh: 0
    subMeshCount: 0
  m_StaticBatchRoot: {fileID: 0}
  m_ProbeAnchor: {fileID: 0}
  m_LightProbeVolumeOverride: {fileID: 0}
  m_ScaleInLightmap: 1
  m_ReceiveGI: 1
  m_PreserveUVs: 0
  m_IgnoreNormalsForChartDetection: 0
  m_ImportantGI: 0
  m_StitchLightmapSeams: 1
  m_SelectedEditorRenderState: 3
  m_MinimumChartSize: 4
  m_AutoUVMaxDistance: 0.5
  m_AutoUVMaxAngle: 89
  m_LightmapParameters: {fileID: 0}
  m_SortingLayerID: 0
  m_SortingLayer: 0
  m_SortingOrder: 0
  m_AdditionalVertexStreams: {fileID: 0}
--- !u!65 &1052924231726206942
BoxCollider:
  m_ObjectHideFlags: 0
  m_CorrespondingSourceObject: {fileID: 0}
  m_PrefabInstance: {fileID: 0}
  m_PrefabAsset: {fileID: 0}
  m_GameObject: {fileID: 7423867455508838046}
  m_Material: {fileID: 0}
  m_IncludeLayers:
    serializedVersion: 2
    m_Bits: 0
  m_ExcludeLayers:
    serializedVersion: 2
    m_Bits: 0
  m_LayerOverridePriority: 0
  m_IsTrigger: 1
  m_ProvidesContacts: 0
  m_Enabled: 1
  serializedVersion: 3
  m_Size: {x: 6.5021806, y: 27.520279, z: 6.673369}
  m_Center: {x: 7.2255683, y: 45.906384, z: -0.094195}
--- !u!114 &5297012192441805759
MonoBehaviour:
  m_ObjectHideFlags: 0
  m_CorrespondingSourceObject: {fileID: 0}
  m_PrefabInstance: {fileID: 0}
  m_PrefabAsset: {fileID: 0}
  m_GameObject: {fileID: 7423867455508838046}
  m_Enabled: 1
  m_EditorHideFlags: 0
  m_Script: {fileID: 11500000, guid: c9bca8a564b347c47b627f612aa858e3, type: 3}
  m_Name: 
  m_EditorClassIdentifier: 
  m_posicionPararViento: {fileID: 0}
  m_boxColliderUno: {fileID: 0}
  m_boxColliderDos: {fileID: 0}
  m_CantidadQueHaceVolar: 50
  m_DireccionVuelo: 0
--- !u!1001 &326036483712509956
PrefabInstance:
  m_ObjectHideFlags: 0
  serializedVersion: 2
  m_Modification:
    serializedVersion: 3
    m_TransformParent: {fileID: 5885272348530858017}
    m_Modifications:
    - target: {fileID: 1204688966453134, guid: 38207d04a92209e43b41fa581bf6cf30, type: 3}
      propertyPath: m_Name
      value: fan2 (1)
      objectReference: {fileID: 0}
    - target: {fileID: 4592005943409636, guid: 38207d04a92209e43b41fa581bf6cf30, type: 3}
      propertyPath: m_RootOrder
      value: -1
      objectReference: {fileID: 0}
    - target: {fileID: 4592005943409636, guid: 38207d04a92209e43b41fa581bf6cf30, type: 3}
      propertyPath: m_LocalScale.x
      value: 4
      objectReference: {fileID: 0}
    - target: {fileID: 4592005943409636, guid: 38207d04a92209e43b41fa581bf6cf30, type: 3}
      propertyPath: m_LocalScale.y
      value: 4
      objectReference: {fileID: 0}
    - target: {fileID: 4592005943409636, guid: 38207d04a92209e43b41fa581bf6cf30, type: 3}
      propertyPath: m_LocalScale.z
      value: 1
      objectReference: {fileID: 0}
    - target: {fileID: 4592005943409636, guid: 38207d04a92209e43b41fa581bf6cf30, type: 3}
      propertyPath: m_LocalPosition.x
      value: 11.71
      objectReference: {fileID: 0}
    - target: {fileID: 4592005943409636, guid: 38207d04a92209e43b41fa581bf6cf30, type: 3}
      propertyPath: m_LocalPosition.y
      value: 33.15
      objectReference: {fileID: 0}
    - target: {fileID: 4592005943409636, guid: 38207d04a92209e43b41fa581bf6cf30, type: 3}
      propertyPath: m_LocalPosition.z
      value: -0
      objectReference: {fileID: 0}
    - target: {fileID: 4592005943409636, guid: 38207d04a92209e43b41fa581bf6cf30, type: 3}
      propertyPath: m_LocalRotation.w
      value: 0.5
      objectReference: {fileID: 0}
    - target: {fileID: 4592005943409636, guid: 38207d04a92209e43b41fa581bf6cf30, type: 3}
      propertyPath: m_LocalRotation.x
      value: 0.5
      objectReference: {fileID: 0}
    - target: {fileID: 4592005943409636, guid: 38207d04a92209e43b41fa581bf6cf30, type: 3}
      propertyPath: m_LocalRotation.y
      value: -0.5
      objectReference: {fileID: 0}
    - target: {fileID: 4592005943409636, guid: 38207d04a92209e43b41fa581bf6cf30, type: 3}
      propertyPath: m_LocalRotation.z
      value: 0.5
      objectReference: {fileID: 0}
    - target: {fileID: 4592005943409636, guid: 38207d04a92209e43b41fa581bf6cf30, type: 3}
      propertyPath: m_LocalEulerAnglesHint.x
      value: 90
      objectReference: {fileID: 0}
    - target: {fileID: 4592005943409636, guid: 38207d04a92209e43b41fa581bf6cf30, type: 3}
      propertyPath: m_LocalEulerAnglesHint.y
      value: -90
      objectReference: {fileID: 0}
    - target: {fileID: 4592005943409636, guid: 38207d04a92209e43b41fa581bf6cf30, type: 3}
      propertyPath: m_LocalEulerAnglesHint.z
      value: 0
      objectReference: {fileID: 0}
    - target: {fileID: 23871856919721006, guid: 38207d04a92209e43b41fa581bf6cf30,
        type: 3}
      propertyPath: m_Materials.Array.data[0]
      value: 
      objectReference: {fileID: 2100000, guid: ded64c6d8c8c9cb48a325c8725694bd7, type: 2}
    m_RemovedComponents: []
    m_RemovedGameObjects: []
    m_AddedGameObjects: []
    m_AddedComponents: []
  m_SourcePrefab: {fileID: 100100000, guid: 38207d04a92209e43b41fa581bf6cf30, type: 3}
--- !u!4 &330451708164461536 stripped
Transform:
  m_CorrespondingSourceObject: {fileID: 4592005943409636, guid: 38207d04a92209e43b41fa581bf6cf30,
    type: 3}
  m_PrefabInstance: {fileID: 326036483712509956}
  m_PrefabAsset: {fileID: 0}
